…
### Section 2: Time spent on email

  - #### Question 3: Create a new variable called email that combines these two variables to reports the number of minutes the respondents spend on email weekly

  - ##### Answer:

<!-- end list -->

``` r
gss16 <- gss16 %>%
  mutate(email = emailhr*60 + emailmin)
select(gss16, email)
```

    ## # A tibble: 2,867 x 1
    ##    email
    ##    <dbl>
    ##  1   720
    ##  2    30
    ##  3    NA
    ##  4    10
    ##  5    NA
    ##  6   120
    ##  7  2400
    ##  8    NA
    ##  9     0
    ## 10    NA
    ## # … with 2,857 more rows
…
    ## [1] 416.8423

  - #### Question 5: Create another new variable, snap\_insta that is coded as “Yes” if the respondent reported using any of Snapchat (snapchat) or Instagram (instagrm), and “No” if not. If the recorded value was NA for both of these questions, the value in your new variable should also be NA

  - ##### Answer:

<!-- end list -->

``` r
gss16 <- gss16 %>%
  mutate(snap_insta = if_else(snapchat == "Yes" | instagrm == "Yes", "Yes", "No"))
select(gss16,snap_insta)
```

    ## # A tibble: 2,867 x 1
    ##    snap_insta
    ##    <chr>     
    ##  1 <NA>      
    ##  2 No        
    ##  3 No        
    ##  4 <NA>      
    ##  5 Yes       
    ##  6 Yes       
    ##  7 <NA>      
    ##  8 Yes       
    ##  9 <NA>      
    ## 10 No        
    ## # … with 2,857 more rows
…
  - #### Question 9: Create a predicted values vs. residuals plot for this model. Are there any issues with the model? If yes, describe them.

  - ##### Answer:

<!-- end list -->

``` r
email_fit_aug <- augment(email_fitting$fit)
email_fit_aug
```

    ## # A tibble: 679 x 11
    ##    .rownames email  educ wrkstat       snap_insta .fitted  .resid    .hat .sigma
    ##    <chr>     <dbl> <dbl> <chr>         <chr>        <dbl>   <dbl>   <dbl>  <dbl>
    ##  1 2            30    12 Working full… No          493.   -463.   0.00545   642.
    ##  2 6           120    14 Keeping house Yes         335.   -215.   0.0179    643.
    ##  3 11          120    12 Keeping house No          126.     -5.85 0.0165    643.
    ##  4 13          600    12 Working part… No          145.    455.   0.0121    642.
    ##  5 15           30    10 Temp not wor… No           -7.12   37.1  0.0483    643.
    ##  6 19           60    18 Working full… Yes         820.   -760.   0.00809   642.
    ##  7 21         1500    12 Working full… No          493.   1007.   0.00545   641.
    ##  8 23           60    10 Working part… Yes         235.   -175.   0.0144    643.
    ##  9 28            0    14 Working part… Yes         354.   -354.   0.0114    643.
    ## 10 29           10    18 Retired       No          372.   -362.   0.0172    643.
    ## # … with 669 more rows, and 2 more variables: .cooksd <dbl>, .std.resid <dbl>
…
